{
  "current_page": 1,
  "data": [
    {
      "fact": "Unlike dogs, cats do not have a sweet tooth. Scientists believe this is due to a mutation in a key taste receptor.",
      "length": 114
    },
    {
      "fact": "When a cat chases its prey, it keeps its head level. Dogs and humans bob their heads up and down.",
      "length": 97
    },
    {
      "fact": "The technical term for a cat\u2019s hairball is a \u201cbezoar.\u201d",
      "length": 54
    }
  ],
  "first_page_url": "https://catfact.ninja/facts?page=1",
  "from": 1,
  "last_page": 111,
  "last_page_url": "https://catfact.ninja/facts?page=111",
  "links": [
    {
      "url": null,
      "label": "Previous",
      "active": false
    },
    {
      "url": "https://catfact.ninja/facts?page=1",
      "label": "1",
      "active": true
    },
    {
      "url": "https://catfact.ninja/facts?page=2",
      "label": "2",
      "active": false
    },
    {
      "url": "https://catfact.ninja/facts?page=3",
      "label": "3",
      "active": false
    },
    {
      "url": "https://catfact.ninja/facts?page=4",
      "label": "4",
      "active": false
    },
    {
      "url": "https://catfact.ninja/facts?page=5",
      "label": "5",
      "active": false
    },
    {
      "url": "https://catfact.ninja/facts?page=6",
      "label": "6",
      "active": false
    },
    {
      "url": "https://catfact.ninja/facts?page=7",
      "label": "7",
      "active": false
    },
    {
      "url": "https://catfact.ninja/facts?page=8",
      "label": "8",
      "active": false
    },
    {
      "url": "https://catfact.ninja/facts?page=9",
      "label": "9",
      "active": false
    },
    {
      "url": "https://catfact.ninja/facts?page=10",
      "label": "10",
      "active": false
    },
    {
      "url": null,
      "label": "...",
      "active": false
    },
    {
      "url": "https://catfact.ninja/facts?page=110",
      "label": "110",
      "active": false
    },
    {
      "url": "https://catfact.ninja/facts?page=111",
      "label": "111",
      "active": false
    },
    {
      "url": "https://catfact.ninja/facts?page=2",
      "label": "Next",
      "active": false
    }
  ],
  "next_page_url": "https://catfact.ninja/facts?page=2",
  "path": "https://catfact.ninja/facts",
  "per_page": 3,
  "prev_page_url": null,
  "to": 3,
  "total": 332
}